{
  "google": {
    "richResponse": {
      "items": [
        {
          "simpleResponse": {
            "textToSpeech": "Here are your expenses"
          }
        },
        {
          "tableCard": {
            "title": "List of expenses",
            "subtitle": "on",
            "columnProperties": [
              {
                "header": "Category"
              },
              {
                "header": "Item"
              },
              {
                "header": "Price",
                "horizontalAlignment": "TRAILING"
              }
            ]
          }
        }
      ]
    }
  }
}
